{
  "version": 1,
  "serviceConfiguration": {
    "apiName": "gifter",
    "serviceName": "AppSync",
    "gqlSchemaPath": "/tmp/amplify-f14decd7-9b2f-47db-9cfc-16cb1ff08942/amplify/backend/api/gifter/schema.graphql",
    "defaultAuthType": {
      "mode": "API_KEY",
      "keyDescription": "api key description",
      "expirationTime": 30
    },
    "additionalAuthTypes": [
      {
        "mode": "AWS_IAM"
      }
    ],
    "conflictResolution": {
      "defaultResolutionStrategy": {
        "type": "AUTOMERGE"
      }
    }
  }
}